{"result":{"data":{"json":{"status":"complete","message":null,"jobs":[{"id":"MTK120260629001","title":"AI Software Tool Engineer","summary":null,"location":null,"jobPostStatus":"posted","description":"1. Develop and integrate AI agent harness\n2. Develop and integrate software engineering system to improve software development lifecycle\n3. Collect / analyze system requirement & system design\n4. Support urgent system function or performance problem\n\n#LI-LYNN","publishedDate":"2026-06-28T16:00:00.000+00:00","applicationId":null,"properties":{"category":{"label":"Software","code":"9020"},"workExperience":{"label":"0003","code":"More than 2 Years Work Expe."},"location":{"label":"0000009256","code":"HsinChu"},"program":{"label":null,"code":null},"jobEducationInfos":[{"educationDegree":"Master's Degree","educationMajor":"Information Management"},{"educationDegree":"Master's Degree","educationMajor":"Electrical Engineering"},{"educationDegree":"Master's Degree","educationMajor":"Computer Science & Information Eng."}]},"jobStatusInfo":null},{"id":"MTK120260623001","title":"AI Software and System Architecture Engineer","summary":null,"location":null,"jobPostStatus":"posted","description":"This role serves as the AI architecture owner and the single-threaded DRI (Directly Responsible Individual) for key customers. You will work closely with customers and internal R&D/product/platform teams to translate requirements into shippable technical solutions, drive end-to-end AI system design, ensure performance/quality targets, and close the loop on escalations. The ideal candidate is both technically strong and execution-focused, capable of leading cross-functional efforts from definition to delivery.\n\n#LI-LYNN","publishedDate":"2026-06-22T16:00:00.000+00:00","applicationId":null,"properties":{"category":{"label":"Software","code":"9020"},"workExperience":{"label":"0003","code":"More than 2 Years Work Expe."},"location":{"label":"0000009256","code":"HsinChu"},"program":{"label":null,"code":null},"jobEducationInfos":[]},"jobStatusInfo":null},{"id":"MTK120260608001","title":"Senior Embedded Power System Software Engineer","summary":null,"location":null,"jobPostStatus":"posted","description":"• Developing the PMIC, battery charger and fuel gauge driver/framework in Android/ Linux system. Support customer problem handling and customized requirements.\n• Developing power management solutions to maximize energy efficiency and optimize power consumption in electronic systems.\n• Analyzing and improving system performance through testing, simulation, and optimization of hardware and software components.\n• Conducting thorough analysis and validation of power consumption and performance aspects to meet industry standards and customer requirements.\n• System Software Integration development and integration\n\n#LI-LYNN","publishedDate":"2026-06-09T16:00:00.000+00:00","applicationId":null,"properties":{"category":{"label":"Software","code":"9020"},"workExperience":{"label":"0004","code":"More than 4 Years Work Expe."},"location":{"label":"0000009256","code":"HsinChu"},"program":{"label":null,"code":null},"jobEducationInfos":[{"educationDegree":"Master's Degree","educationMajor":"電機/電子 Electrical Engineering "},{"educationDegree":"Master's Degree","educationMajor":"電控/控制 Electrical Control Engineering "},{"educationDegree":"Master's Degree","educationMajor":"資科/資工 Computer Science "},{"educationDegree":"Master's Degree","educationMajor":"其他工程科系 Other Engineering Related "},{"educationDegree":"Master's Degree","educationMajor":"通訊/電信 Communication Engineering "}]},"jobStatusInfo":null},{"id":"MTK120260602001","title":"Embedded Software Engineer/Senior Engineer","summary":null,"location":null,"jobPostStatus":"posted","description":"1. Responsible for the development of Bootloader and Driver software and the development of IC verification environment.\n2. Execute IC bring up and software system integration work, lead the tracking of progress and assist in solving software system problems\n3. Responsible for software system integration and Project Leader affairs\n\n#LI-LYNN","publishedDate":"2026-06-01T16:00:00.000+00:00","applicationId":null,"properties":{"category":{"label":"Software","code":"9020"},"workExperience":{"label":"0011","code":"No Work Expe."},"location":{"label":"0000009256","code":"HsinChu"},"program":{"label":null,"code":null},"jobEducationInfos":[{"educationDegree":"Master's Degree","educationMajor":"Computer science"}]},"jobStatusInfo":null},{"id":"MTK120260521009","title":"TV Software - System Engineer","summary":null,"location":null,"jobPostStatus":"posted","description":"Responsible for software system development and maintenance of smart TV products, including: \n1. Linux Kernel integration, driver development, system performance optimization, and troubleshooting.\n2. Collaborate closely with hardware and application software teams to ensure product functionality and quality meet market requirements.\n\nThis position also involves participation in international projects and requires occasional business travel.\n\n#LI-LYNN","publishedDate":"2026-06-01T16:00:00.000+00:00","applicationId":null,"properties":{"category":{"label":"Software","code":"9020"},"workExperience":{"label":"0003","code":"More than 2 Years Work Expe."},"location":{"label":"0000009256","code":"HsinChu"},"program":{"label":null,"code":null},"jobEducationInfos":[{"educationDegree":"Master's Degree","educationMajor":"通訊/電信 Communication Engineering "},{"educationDegree":"Master's Degree","educationMajor":"電機/電子 Electrical Engineering "},{"educationDegree":"Master's Degree","educationMajor":"電控/控制 Electrical Control Engineering "},{"educationDegree":"Master's Degree","educationMajor":"資科/資工 Computer Science "}]},"jobStatusInfo":null},{"id":"MTK120260526017","title":"Android Multimedia System Framework Engineer","summary":null,"location":null,"jobPostStatus":"posted","description":"1. Develop Android smartphone multimedia video system framework, driver and functions.\n2. Analyze and optimize Android smartphone multimedia video performance.\n3. Video feature verification.\n4. System performance analyze.\n\n#LI-LYNN","publishedDate":"2026-06-01T16:00:00.000+00:00","applicationId":null,"properties":{"category":{"label":"Software","code":"9020"},"workExperience":{"label":"0002","code":"Less than 2 Years Work Expe."},"location":{"label":"0000009256","code":"HsinChu"},"program":{"label":null,"code":null},"jobEducationInfos":[{"educationDegree":"Master's Degree","educationMajor":"電機/電子 Electrical Engineering "},{"educationDegree":"Master's Degree","educationMajor":"資科/資工 Computer Science "}]},"jobStatusInfo":null}],"pagination":{"current_page":1,"total_pages":6,"total_items":31}}}}}